flipflop/simulation/qsim/flip.msim.vcd
$comment
	File created using the following command:
		vcd file flip.msim.vcd -direction
$end
$date
	Tue Nov 24 15:24:32 2015
$end
$version
	ModelSim Version 10.3d
$end
$timescale
	1ps
$end

$scope module flip_vlg_vec_tst $end
$var reg 1 ! clock $end
$var wire 1 " q [3] $end
$var wire 1 # q [2] $end
$var wire 1 $ q [1] $end
$var wire 1 % q [0] $end
$var wire 1 & sampler $end

$scope module i1 $end
$var wire 1 ' gnd $end
$var wire 1 ( vcc $end
$var wire 1 ) unknown $end
$var tri1 1 * devclrn $end
$var tri1 1 + devpor $end
$var tri1 1 , devoe $end
$var wire 1 - q[0]~output_o $end
$var wire 1 . q[1]~output_o $end
$var wire 1 / q[2]~output_o $end
$var wire 1 0 q[3]~output_o $end
$var wire 1 1 clock~input_o $end
$var wire 1 2 LPM_COUNTER_component|auto_generated|counter_comb_bita0~sumout $end
$var wire 1 3 LPM_COUNTER_component|auto_generated|counter_comb_bita0~COUT $end
$var wire 1 4 LPM_COUNTER_component|auto_generated|counter_comb_bita1~sumout $end
$var wire 1 5 LPM_COUNTER_component|auto_generated|counter_comb_bita1~COUT $end
$var wire 1 6 LPM_COUNTER_component|auto_generated|counter_comb_bita2~sumout $end
$var wire 1 7 LPM_COUNTER_component|auto_generated|counter_comb_bita2~COUT $end
$var wire 1 8 LPM_COUNTER_component|auto_generated|counter_comb_bita3~sumout $end
$var wire 1 9 LPM_COUNTER_component|auto_generated|counter_reg_bit [3] $end
$var wire 1 : LPM_COUNTER_component|auto_generated|counter_reg_bit [2] $end
$var wire 1 ; LPM_COUNTER_component|auto_generated|counter_reg_bit [1] $end
$var wire 1 < LPM_COUNTER_component|auto_generated|counter_reg_bit [0] $end
$upscope $end
$upscope $end
$enddefinitions $end
#0
$dumpvars
0!
0%
0$
0#
0"
x&
0'
1(
x)
1*
1+
1,
0-
0.
0/
00
01
12
03
04
05
06
07
08
0<
0;
0:
09
$end
#5000
1!
0&
11
1<
1-
13
1%
02
14
#10000
0!
1&
01
#15000
1!
0&
11
1;
0<
0-
1.
03
15
0%
1$
12
04
05
14
16
06
#20000
0!
1&
01
#25000
1!
0&
11
1<
1-
13
1%
02
15
04
16
#30000
0!
1&
01
#35000
1!
0&
11
1:
0;
0<
0-
0.
1/
03
05
17
0%
0$
1#
12
14
06
07
04
16
18
08
#40000
0!
1&
01
#45000
1!
0&
11
1<
1-
13
1%
02
14
#50000
0!
1&
01
#55000
1!
0&
11
1;
0<
0-
1.
03
15
0%
1$
12
04
05
17
14
06
07
16
18
08
#60000
0!
1&
01
#65000
1!
0&
11
1<
1-
13
1%
02
15
04
17
06
18
#70000
0!
1&
01
#75000
1!
0&
11
19
0:
0;
0<
0-
0.
0/
10
03
05
07
0%
0$
0#
1"
12
14
16
08
04
06
18
#80000
0!
1&
01
#85000
1!
0&
11
1<
1-
13
1%
02
14
#90000
0!
1&
01
#95000
1!
0&
11
1;
0<
0-
1.
03
15
0%
1$
12
04
05
14
16
06
#100000
0!
1&
01
#105000
1!
0&
11
1<
1-
13
1%
02
15
04
16
#110000
0!
1&
01
#115000
1!
0&
11
1:
0;
0<
0-
0.
1/
03
05
17
0%
0$
1#
12
14
06
07
04
16
08
18
#120000
0!
1&
01
#125000
1!
0&
11
1<
1-
13
1%
02
14
#130000
0!
1&
01
#135000
1!
0&
11
1;
0<
0-
1.
03
15
0%
1$
12
04
05
17
14
06
07
16
08
18
#140000
0!
1&
01
#145000
1!
0&
11
1<
1-
13
1%
02
15
04
17
06
08
#150000
0!
1&
01
#155000
1!
0&
11
09
0:
0;
0<
0-
0.
0/
00
03
05
07
0%
0$
0#
0"
12
14
16
18
04
06
08
#160000
0!
1&
01
#165000
1!
0&
11
1<
1-
13
1%
02
14
#170000
0!
1&
01
#175000
1!
0&
11
1;
0<
0-
1.
03
15
0%
1$
12
04
05
14
16
06
#180000
0!
1&
01
#185000
1!
0&
11
1<
1-
13
1%
02
15
04
16
#190000
0!
1&
01
#195000
1!
0&
11
1:
0;
0<
0-
0.
1/
03
05
17
0%
0$
1#
12
14
06
07
04
16
18
08
#200000
0!
1&
01
#205000
1!
0&
11
1<
1-
13
1%
02
14
#210000
0!
1&
01
#215000
1!
0&
11
1;
0<
0-
1.
03
15
0%
1$
12
04
05
17
14
06
07
16
18
08
#220000
0!
1&
01
#225000
1!
0&
11
1<
1-
13
1%
02
15
04
17
06
18
#230000
0!
1&
01
#235000
1!
0&
11
19
0:
0;
0<
0-
0.
0/
10
03
05
07
0%
0$
0#
1"
12
14
16
08
04
06
18
#240000
0!
1&
01
#245000
1!
0&
11
1<
1-
13
1%
02
14
#250000
0!
1&
01
#255000
1!
0&
11
1;
0<
0-
1.
03
15
0%
1$
12
04
05
14
16
06
#260000
0!
1&
01
#265000
1!
0&
11
1<
1-
13
1%
02
15
04
16
#270000
0!
1&
01
#275000
1!
0&
11
1:
0;
0<
0-
0.
1/
03
05
17
0%
0$
1#
12
14
06
07
04
16
08
18
#280000
0!
1&
01
#285000
1!
0&
11
1<
1-
13
1%
02
14
#290000
0!
1&
01
#295000
1!
0&
11
1;
0<
0-
1.
03
15
0%
1$
12
04
05
17
14
06
07
16
08
18
#300000
0!
1&
01
#305000
1!
0&
11
1<
1-
13
1%
02
15
04
17
06
08
#310000
0!
1&
01
#315000
1!
0&
11
09
0:
0;
0<
0-
0.
0/
00
03
05
07
0%
0$
0#
0"
12
14
16
18
04
06
08
#320000
0!
1&
01
#325000
1!
0&
11
1<
1-
13
1%
02
14
#330000
0!
1&
01
#335000
1!
0&
11
1;
0<
0-
1.
03
15
0%
1$
12
04
05
14
16
06
#340000
0!
1&
01
#345000
1!
0&
11
1<
1-
13
1%
02
15
04
16
#350000
0!
1&
01
#355000
1!
0&
11
1:
0;
0<
0-
0.
1/
03
05
17
0%
0$
1#
12
14
06
07
04
16
18
08
#360000
0!
1&
01
#365000
1!
0&
11
1<
1-
13
1%
02
14
#370000
0!
1&
01
#375000
1!
0&
11
1;
0<
0-
1.
03
15
0%
1$
12
04
05
17
14
06
07
16
18
08
#380000
0!
1&
01
#385000
1!
0&
11
1<
1-
13
1%
02
15
04
17
06
18
#390000
0!
1&
01
#395000
1!
0&
11
19
0:
0;
0<
0-
0.
0/
10
03
05
07
0%
0$
0#
1"
12
14
16
08
04
06
18
#400000
0!
1&
01
#405000
1!
0&
11
1<
1-
13
1%
02
14
#410000
0!
1&
01
#415000
1!
0&
11
1;
0<
0-
1.
03
15
0%
1$
12
04
05
14
16
06
#420000
0!
1&
01
#425000
1!
0&
11
1<
1-
13
1%
02
15
04
16
#430000
0!
1&
01
#435000
1!
0&
11
1:
0;
0<
0-
0.
1/
03
05
17
0%
0$
1#
12
14
06
07
04
16
08
18
#440000
0!
1&
01
#445000
1!
0&
11
1<
1-
13
1%
02
14
#450000
0!
1&
01
#455000
1!
0&
11
1;
0<
0-
1.
03
15
0%
1$
12
04
05
17
14
06
07
16
08
18
#460000
0!
1&
01
#465000
1!
0&
11
1<
1-
13
1%
02
15
04
17
06
08
#470000
0!
1&
01
#475000
1!
0&
11
09
0:
0;
0<
0-
0.
0/
00
03
05
07
0%
0$
0#
0"
12
14
16
18
04
06
08
#480000
0!
1&
01
#485000
1!
0&
11
1<
1-
13
1%
02
14
#490000
0!
1&
01
#495000
1!
0&
11
1;
0<
0-
1.
03
15
0%
1$
12
04
05
14
16
06
#500000
0!
1&
01
#505000
1!
0&
11
1<
1-
13
1%
02
15
04
16
#510000
0!
1&
01
#515000
1!
0&
11
1:
0;
0<
0-
0.
1/
03
05
17
0%
0$
1#
12
14
06
07
04
16
18
08
#520000
0!
1&
01
#525000
1!
0&
11
1<
1-
13
1%
02
14
#530000
0!
1&
01
#535000
1!
0&
11
1;
0<
0-
1.
03
15
0%
1$
12
04
05
17
14
06
07
16
18
08
#540000
0!
1&
01
#545000
1!
0&
11
1<
1-
13
1%
02
15
04
17
06
18
#550000
0!
1&
01
#555000
1!
0&
11
19
0:
0;
0<
0-
0.
0/
10
03
05
07
0%
0$
0#
1"
12
14
16
08
04
06
18
#560000
0!
1&
01
#565000
1!
0&
11
1<
1-
13
1%
02
14
#570000
0!
1&
01
#575000
1!
0&
11
1;
0<
0-
1.
03
15
0%
1$
12
04
05
14
16
06
#580000
0!
1&
01
#585000
1!
0&
11
1<
1-
13
1%
02
15
04
16
#590000
0!
1&
01
#595000
1!
0&
11
1:
0;
0<
0-
0.
1/
03
05
17
0%
0$
1#
12
14
06
07
04
16
08
18
#600000
0!
1&
01
#605000
1!
0&
11
1<
1-
13
1%
02
14
#610000
0!
1&
01
#615000
1!
0&
11
1;
0<
0-
1.
03
15
0%
1$
12
04
05
17
14
06
07
16
08
18
#620000
0!
1&
01
#625000
1!
0&
11
1<
1-
13
1%
02
15
04
17
06
08
#630000
0!
1&
01
#635000
1!
0&
11
09
0:
0;
0<
0-
0.
0/
00
03
05
07
0%
0$
0#
0"
12
14
16
18
04
06
08
#640000
0!
1&
01
#645000
1!
0&
11
1<
1-
13
1%
02
14
#650000
0!
1&
01
#655000
1!
0&
11
1;
0<
0-
1.
03
15
0%
1$
12
04
05
14
16
06
#660000
0!
1&
01
#665000
1!
0&
11
1<
1-
13
1%
02
15
04
16
#670000
0!
1&
01
#675000
1!
0&
11
1:
0;
0<
0-
0.
1/
03
05
17
0%
0$
1#
12
14
06
07
04
16
18
08
#680000
0!
1&
01
#685000
1!
0&
11
1<
1-
13
1%
02
14
#690000
0!
1&
01
#695000
1!
0&
11
1;
0<
0-
1.
03
15
0%
1$
12
04
05
17
14
06
07
16
18
08
#700000
0!
1&
01
#705000
1!
0&
11
1<
1-
13
1%
02
15
04
17
06
18
#710000
0!
1&
01
#715000
1!
0&
11
19
0:
0;
0<
0-
0.
0/
10
03
05
07
0%
0$
0#
1"
12
14
16
08
04
06
18
#720000
0!
1&
01
#725000
1!
0&
11
1<
1-
13
1%
02
14
#730000
0!
1&
01
#735000
1!
0&
11
1;
0<
0-
1.
03
15
0%
1$
12
04
05
14
16
06
#740000
0!
1&
01
#745000
1!
0&
11
1<
1-
13
1%
02
15
04
16
#750000
0!
1&
01
#755000
1!
0&
11
1:
0;
0<
0-
0.
1/
03
05
17
0%
0$
1#
12
14
06
07
04
16
08
18
#760000
0!
1&
01
#765000
1!
0&
11
1<
1-
13
1%
02
14
#770000
0!
1&
01
#775000
1!
0&
11
1;
0<
0-
1.
03
15
0%
1$
12
04
05
17
14
06
07
16
08
18
#780000
0!
1&
01
#785000
1!
0&
11
1<
1-
13
1%
02
15
04
17
06
08
#790000
0!
1&
01
#795000
1!
0&
11
09
0:
0;
0<
0-
0.
0/
00
03
05
07
0%
0$
0#
0"
12
14
16
18
04
06
08
#800000
0!
1&
01
#805000
1!
0&
11
1<
1-
13
1%
02
14
#810000
0!
1&
01
#815000
1!
0&
11
1;
0<
0-
1.
03
15
0%
1$
12
04
05
14
16
06
#820000
0!
1&
01
#825000
1!
0&
11
1<
1-
13
1%
02
15
04
16
#830000
0!
1&
01
#835000
1!
0&
11
1:
0;
0<
0-
0.
1/
03
05
17
0%
0$
1#
12
14
06
07
04
16
18
08
#840000
0!
1&
01
#845000
1!
0&
11
1<
1-
13
1%
02
14
#850000
0!
1&
01
#855000
1!
0&
11
1;
0<
0-
1.
03
15
0%
1$
12
04
05
17
14
06
07
16
18
08
#860000
0!
1&
01
#865000
1!
0&
11
1<
1-
13
1%
02
15
04
17
06
18
#870000
0!
1&
01
#875000
1!
0&
11
19
0:
0;
0<
0-
0.
0/
10
03
05
07
0%
0$
0#
1"
12
14
16
08
04
06
18
#880000
0!
1&
01
#885000
1!
0&
11
1<
1-
13
1%
02
14
#890000
0!
1&
01
#895000
1!
0&
11
1;
0<
0-
1.
03
15
0%
1$
12
04
05
14
16
06
#900000
0!
1&
01
#905000
1!
0&
11
1<
1-
13
1%
02
15
04
16
#910000
0!
1&
01
#915000
1!
0&
11
1:
0;
0<
0-
0.
1/
03
05
17
0%
0$
1#
12
14
06
07
04
16
08
18
#920000
0!
1&
01
#925000
1!
0&
11
1<
1-
13
1%
02
14
#930000
0!
1&
01
#935000
1!
0&
11
1;
0<
0-
1.
03
15
0%
1$
12
04
05
17
14
06
07
16
08
18
#940000
0!
1&
01
#945000
1!
0&
11
1<
1-
13
1%
02
15
04
17
06
08
#950000
0!
1&
01
#955000
1!
0&
11
09
0:
0;
0<
0-
0.
0/
00
03
05
07
0%
0$
0#
0"
12
14
16
18
04
06
08
#960000
0!
1&
01
#965000
1!
0&
11
1<
1-
13
1%
02
14
#970000
0!
1&
01
#975000
1!
0&
11
1;
0<
0-
1.
03
15
0%
1$
12
04
05
14
16
06
#980000
0!
1&
01
#985000
1!
0&
11
1<
1-
13
1%
02
15
04
16
#990000
0!
1&
01
#995000
1!
0&
11
1:
0;
0<
0-
0.
1/
03
05
17
0%
0$
1#
12
14
06
07
04
16
18
08
