alu2/simulation/qsim/alu2.msim.vcd
$comment
	File created using the following command:
		vcd file alu2.msim.vcd -direction
$end
$date
	Tue Nov 24 14:29:02 2015
$end
$version
	ModelSim Version 10.3d
$end
$timescale
	1ps
$end

$scope module alu2_vlg_vec_tst $end
$var reg 1 ! CLK $end
$var reg 1 " I0 $end
$var reg 1 # I1 $end
$var reg 1 $ SHIFT $end
$var wire 1 % C_OUT $end
$var wire 1 & S [3] $end
$var wire 1 ' S [2] $end
$var wire 1 ( S [1] $end
$var wire 1 ) S [0] $end
$var wire 1 * XX [3] $end
$var wire 1 + XX [2] $end
$var wire 1 , XX [1] $end
$var wire 1 - XX [0] $end
$var wire 1 . YY [3] $end
$var wire 1 / YY [2] $end
$var wire 1 0 YY [1] $end
$var wire 1 1 YY [0] $end
$var wire 1 2 sampler $end

$scope module i1 $end
$var wire 1 3 gnd $end
$var wire 1 4 vcc $end
$var wire 1 5 unknown $end
$var tri1 1 6 devclrn $end
$var tri1 1 7 devpor $end
$var tri1 1 8 devoe $end
$var wire 1 9 C_OUT~output_o $end
$var wire 1 : XX[3]~output_o $end
$var wire 1 ; XX[2]~output_o $end
$var wire 1 < XX[1]~output_o $end
$var wire 1 = XX[0]~output_o $end
$var wire 1 > YY[3]~output_o $end
$var wire 1 ? YY[2]~output_o $end
$var wire 1 @ YY[1]~output_o $end
$var wire 1 A YY[0]~output_o $end
$var wire 1 B S[3]~output_o $end
$var wire 1 C S[2]~output_o $end
$var wire 1 D S[1]~output_o $end
$var wire 1 E S[0]~output_o $end
$var wire 1 F CLK~input_o $end
$var wire 1 G inst4|LPM_COUNTER_component|auto_generated|counter_comb_bita0~sumout $end
$var wire 1 H inst4|LPM_COUNTER_component|auto_generated|counter_comb_bita0~COUT $end
$var wire 1 I inst4|LPM_COUNTER_component|auto_generated|counter_comb_bita1~sumout $end
$var wire 1 J inst4|LPM_COUNTER_component|auto_generated|counter_comb_bita1~COUT $end
$var wire 1 K inst4|LPM_COUNTER_component|auto_generated|counter_comb_bita2~sumout $end
$var wire 1 L inst4|LPM_COUNTER_component|auto_generated|counter_comb_bita2~COUT $end
$var wire 1 M inst4|LPM_COUNTER_component|auto_generated|counter_comb_bita3~sumout $end
$var wire 1 N inst4|LPM_COUNTER_component|auto_generated|counter_comb_bita3~COUT $end
$var wire 1 O inst4|LPM_COUNTER_component|auto_generated|counter_comb_bita4~sumout $end
$var wire 1 P inst4|LPM_COUNTER_component|auto_generated|counter_comb_bita4~COUT $end
$var wire 1 Q inst4|LPM_COUNTER_component|auto_generated|counter_comb_bita5~sumout $end
$var wire 1 R inst4|LPM_COUNTER_component|auto_generated|counter_comb_bita5~COUT $end
$var wire 1 S inst4|LPM_COUNTER_component|auto_generated|counter_comb_bita6~sumout $end
$var wire 1 T inst4|LPM_COUNTER_component|auto_generated|counter_comb_bita6~COUT $end
$var wire 1 U inst4|LPM_COUNTER_component|auto_generated|counter_comb_bita7~sumout $end
$var wire 1 V I1~input_o $end
$var wire 1 W SHIFT~input_o $end
$var wire 1 X I0~input_o $end
$var wire 1 Y inst|inst4~combout $end
$var wire 1 Z inst|inst3~combout $end
$var wire 1 [ inst6~combout $end
$var wire 1 \ inst3|25~0_combout $end
$var wire 1 ] inst|inst|inst3|inst~combout $end
$var wire 1 ^ inst|inst|inst|inst~combout $end
$var wire 1 _ inst|inst2~combout $end
$var wire 1 ` inst|inst|inst4|inst~combout $end
$var wire 1 a inst|inst|inst|HAs~0_combout $end
$var wire 1 b inst|inst|inst|inst12~0_combout $end
$var wire 1 c inst|inst|inst2|inst12~0_combout $end
$var wire 1 d inst|inst|inst3|inst12~0_combout $end
$var wire 1 e inst|inst|inst4|inst12~0_combout $end
$var wire 1 f inst4|LPM_COUNTER_component|auto_generated|counter_reg_bit [7] $end
$var wire 1 g inst4|LPM_COUNTER_component|auto_generated|counter_reg_bit [6] $end
$var wire 1 h inst4|LPM_COUNTER_component|auto_generated|counter_reg_bit [5] $end
$var wire 1 i inst4|LPM_COUNTER_component|auto_generated|counter_reg_bit [4] $end
$var wire 1 j inst4|LPM_COUNTER_component|auto_generated|counter_reg_bit [3] $end
$var wire 1 k inst4|LPM_COUNTER_component|auto_generated|counter_reg_bit [2] $end
$var wire 1 l inst4|LPM_COUNTER_component|auto_generated|counter_reg_bit [1] $end
$var wire 1 m inst4|LPM_COUNTER_component|auto_generated|counter_reg_bit [0] $end
$upscope $end
$upscope $end
$enddefinitions $end
#0
$dumpvars
0!
1"
0#
0$
0%
0)
0(
0'
0&
0-
0,
0+
0*
01
00
0/
0.
x2
03
14
x5
16
17
18
09
0:
0;
0<
0=
0>
0?
0@
0A
0B
0C
0D
0E
0F
1G
0H
0I
0J
0K
0L
0M
0N
0O
0P
0Q
0R
0S
0T
0U
0V
0W
1X
0Y
0Z
0[
1\
1]
0^
0_
1`
0a
0b
0c
0d
0e
0m
0l
0k
0j
0i
0h
0g
0f
$end
#5000
1!
02
1F
1m
1A
1H
11
1e
0G
1E
1)
1I
#10000
0!
12
0F
#15000
1!
02
1F
1l
0m
0A
1@
0H
1_
1J
01
10
0e
1d
1G
0I
1D
0E
0J
1(
0)
1I
1K
0K
#20000
0!
12
0F
#25000
1!
02
1F
1m
1A
1H
11
1e
0G
1E
1J
1)
0I
1K
#30000
0!
12
0F
#35000
1!
02
1F
1k
0l
0m
0A
0@
1?
0H
0_
0J
1Z
1L
01
00
1/
0e
0d
1G
1I
0K
0D
0E
0L
0(
0)
0I
1K
1M
1c
1C
1'
0M
#40000
0!
12
0F
#45000
1!
02
1F
1m
1A
1H
11
1e
0G
1E
1)
1I
#50000
0!
12
0F
#55000
1!
02
1F
1l
0m
0A
1@
0H
1_
1J
01
10
0e
1d
1G
0I
1D
0E
0J
1L
1(
0)
1I
0K
0L
1K
1M
0M
#60000
0!
12
0F
#65000
1!
02
1F
1m
1A
1H
11
1e
0G
1E
1J
1)
0I
1L
0K
1M
#70000
0!
12
0F
#75000
1!
02
1F
1j
0k
0l
0m
0A
0@
0?
1>
0H
0_
0J
0Z
0L
1a
1Y
1N
01
00
0/
1.
0e
0d
1G
1I
1K
0M
0D
0E
0N
0(
0)
0I
0K
1M
1O
1b
0c
0C
1B
0'
1&
0O
#80000
0!
12
0F
#85000
1!
02
1F
1m
1A
1H
11
1e
0G
1E
1)
1I
#90000
0!
12
0F
#95000
1!
02
1F
1l
0m
0A
1@
0H
1_
1J
01
10
0e
1d
1G
0I
1D
0E
0J
1(
0)
1I
1K
0K
#100000
0!
12
0F
#105000
1!
02
1F
1m
1A
1H
11
1e
0G
1E
1J
1)
0I
1K
#110000
0!
12
0F
#115000
1!
02
1F
1k
0l
0m
0A
0@
1?
0H
0_
0J
1Z
1L
01
00
1/
0e
0d
1G
1I
0K
0D
0E
0L
1N
0(
0)
0I
1K
0M
1c
1C
0N
1'
1M
1O
0O
#120000
0!
12
0F
#125000
1!
02
1F
1m
1A
1H
11
1e
0G
1E
1)
1I
#130000
0!
12
0F
#135000
1!
02
1F
1l
0m
0A
1@
0H
1_
1J
01
10
0e
1d
1G
0I
1D
0E
0J
1L
1(
0)
1I
0K
0L
1N
1K
0M
0N
1M
1O
0O
#140000
0!
12
0F
#145000
1!
02
1F
1m
1A
1H
11
1e
0G
1E
1J
1)
0I
1L
0K
1N
0M
1O
#150000
0!
12
0F
#155000
1!
02
1F
1i
0j
0k
0l
0m
0A
0@
0?
0>
1=
0H
0_
0J
0Z
0L
0a
0Y
0N
1P
01
00
0/
0.
1-
0d
1G
1I
1K
1M
0O
0D
0P
0(
0I
0K
0M
1O
1Q
0b
0c
0C
0B
0'
0&
0Q
#160000
0!
12
0F
#165000
1!
02
1F
1m
1A
0`
1H
11
0e
1d
0G
1D
0E
1(
0)
1I
#170000
0!
12
0F
#175000
1!
02
1F
1l
0m
0A
1@
1`
0H
1_
1J
01
10
1e
1G
0I
1E
0J
1)
1I
1K
0K
#180000
0!
12
0F
#185000
1!
02
1F
1m
1A
0`
0]
1H
11
0e
0d
0G
0D
0E
1J
0(
0)
0I
1c
1C
1'
1K
#190000
0!
12
0F
#195000
1!
02
1F
1k
0l
0m
0A
0@
1?
1`
1]
0H
0_
0J
1Z
1L
01
00
1/
1e
1G
1I
0K
1E
0L
1)
0I
1K
1M
0M
#200000
0!
12
0F
#205000
1!
02
1F
1m
1A
0`
1H
11
0e
1d
0G
1D
0E
1(
0)
1I
#210000
0!
12
0F
#215000
1!
02
1F
1l
0m
0A
1@
1`
0H
1_
1J
01
10
1e
1G
0I
1E
0J
1L
1)
1I
0K
0L
1K
1M
0M
#220000
0!
12
0F
#225000
1!
02
1F
1m
1A
0`
0]
1H
11
0e
0d
0G
0D
0E
1J
0(
0)
0I
0c
1b
1B
0C
1L
1&
0'
0K
1M
#230000
0!
12
0F
#235000
1!
02
1F
1j
0k
0l
0m
0A
0@
0?
1>
1`
1]
0H
0_
0J
0Z
0L
1a
1Y
1N
01
00
0/
1.
1e
1G
1I
1K
0M
1E
0N
1P
1)
0I
0K
1M
0O
0P
1O
1Q
0Q
#240000
0!
12
0F
#245000
1!
02
1F
1m
1A
0`
1H
11
0e
1d
0G
1D
0E
1(
0)
1I
#250000
0!
12
0F
#255000
1!
02
1F
1l
0m
0A
1@
1`
0H
1_
1J
01
10
1e
1G
0I
1E
0J
1)
1I
1K
0K
#260000
0!
12
0F
#265000
1!
02
1F
1m
1A
0`
0]
1H
11
0e
0d
0G
0D
0E
1J
0(
0)
0I
1c
1C
1'
1K
#270000
0!
12
0F
#275000
1!
02
1F
1k
0l
0m
0A
0@
1?
1`
1]
0H
0_
0J
1Z
1L
01
00
1/
1e
1G
1I
0K
1E
0L
1N
1)
0I
1K
0M
0N
1P
1M
0O
0P
1O
1Q
0Q
#280000
0!
12
0F
#285000
1!
02
1F
1m
1A
0`
1H
11
0e
1d
0G
1D
0E
1(
0)
1I
#290000
0!
12
0F
#295000
1!
02
1F
1l
0m
0A
1@
1`
0H
1_
1J
01
10
1e
1G
0I
1E
0J
1L
1)
1I
0K
0L
1N
1K
0M
0N
1P
1M
0O
0P
1O
1Q
0Q
#300000
0!
12
0F
#305000
1!
02
1F
1m
1A
0`
0]
1H
11
0e
0d
0G
0D
0E
1J
0(
0)
0I
1^
0c
0b
0B
0C
19
1L
0&
0'
1%
0K
1N
0M
1P
0O
1Q
#310000
0!
12
0F
#315000
1!
02
1F
1h
0i
0j
0k
0l
0m
0A
0@
0?
0>
0=
1<
1`
1]
0H
0_
0J
0Z
0L
0a
0Y
0N
0P
1R
01
00
0/
0.
0-
1,
1d
1G
1I
1K
1M
1O
0Q
1D
0R
1(
0I
0K
0M
0O
1Q
1S
0^
09
0%
0S
#320000
0!
12
0F
#325000
1!
02
1F
1m
1A
1H
11
1e
0G
1E
1)
1I
#330000
0!
12
0F
#335000
1!
02
1F
1l
0m
0A
1@
0]
0H
1_
1J
01
10
0e
0d
1G
0I
0D
0E
0J
0(
0)
1I
1K
1c
1C
1'
0K
#340000
0!
12
0F
#345000
1!
02
1F
1m
1A
1H
11
1e
0G
1E
1J
1)
0I
1K
#350000
0!
12
0F
#355000
1!
02
1F
1k
0l
0m
0A
0@
1?
1]
0H
0_
0J
1Z
1L
01
00
1/
0e
1d
1G
1I
0K
1D
0E
0L
1(
0)
0I
1K
1M
0M
#360000
0!
12
0F
#365000
1!
02
1F
1m
1A
1H
11
1e
0G
1E
1)
1I
#370000
0!
12
0F
#375000
1!
02
1F
1l
0m
0A
1@
0]
0H
1_
1J
01
10
0e
0d
1G
0I
0D
0E
0J
1L
0(
0)
1I
0K
0c
1b
1B
0C
0L
1&
0'
1K
1M
0M
#380000
0!
12
0F
#385000
1!
02
1F
1m
1A
1H
11
1e
0G
1E
1J
1)
0I
1L
0K
1M
#390000
0!
12
0F
#395000
1!
02
1F
1j
0k
0l
0m
0A
0@
0?
1>
1]
0H
0_
0J
0Z
0L
1a
1Y
1N
01
00
0/
1.
0e
1d
1G
1I
1K
0M
1D
0E
0N
1(
0)
0I
0K
1M
1O
0O
#400000
0!
12
0F
#405000
1!
02
1F
1m
1A
1H
11
1e
0G
1E
1)
1I
#410000
0!
12
0F
#415000
1!
02
1F
1l
0m
0A
1@
0]
0H
1_
1J
01
10
0e
0d
1G
0I
0D
0E
0J
0(
0)
1I
1K
1c
1C
1'
0K
#420000
0!
12
0F
#425000
1!
02
1F
1m
1A
1H
11
1e
0G
1E
1J
1)
0I
1K
#430000
0!
12
0F
#435000
1!
02
1F
1k
0l
0m
0A
0@
1?
1]
0H
0_
0J
1Z
1L
01
00
1/
0e
1d
1G
1I
0K
1D
0E
0L
1N
1(
0)
0I
1K
0M
0N
1M
1O
0O
#440000
0!
12
0F
#445000
1!
02
1F
1m
1A
1H
11
1e
0G
1E
1)
1I
#450000
0!
12
0F
#455000
1!
02
1F
1l
0m
0A
1@
0]
0H
1_
1J
01
10
0e
0d
1G
0I
0D
0E
0J
1L
0(
0)
1I
0K
0c
0b
1^
19
0B
0C
0L
1N
1%
0&
0'
1K
0M
0N
1M
1O
0O
#460000
0!
12
0F
#465000
1!
02
1F
1m
1A
1H
11
1e
0G
1E
1J
1)
0I
1L
0K
1N
0M
1O
#470000
0!
12
0F
#475000
1!
02
1F
1i
0j
0k
0l
0m
0A
0@
0?
0>
1=
1]
0H
0_
0J
0Z
0L
0a
0Y
0N
1P
01
00
0/
0.
1-
1d
1G
1I
1K
1M
0O
1D
0P
1R
1(
0I
0K
0M
1O
0Q
0^
09
0R
0%
1Q
1S
0S
#480000
0!
12
0F
#485000
1!
02
1F
1m
1A
0`
0]
1H
11
0e
0d
0G
0D
0E
0(
0)
1I
1c
1C
1'
#490000
0!
12
0F
#495000
1!
02
1F
1l
0m
0A
1@
1`
0H
1_
1J
01
10
1e
1G
0I
1E
0J
1)
1I
1K
0K
#500000
0!
12
0F
#505000
1!
02
1F
1m
1A
0`
1H
11
0e
1d
0G
1D
0E
1J
1(
0)
0I
1K
#510000
0!
12
0F
#515000
1!
02
1F
1k
0l
0m
0A
0@
1?
1`
1]
0H
0_
0J
1Z
1L
01
00
1/
1e
1G
1I
0K
1E
0L
1)
0I
1K
1M
0M
#520000
0!
12
0F
#525000
1!
02
1F
1m
1A
0`
0]
1H
11
0e
0d
0G
0D
0E
0(
0)
1I
0c
1b
1B
0C
1&
0'
#530000
0!
12
0F
#535000
1!
02
1F
1l
0m
0A
1@
1`
0H
1_
1J
01
10
1e
1G
0I
1E
0J
1L
1)
1I
0K
0L
1K
1M
0M
#540000
0!
12
0F
#545000
1!
02
1F
1m
1A
0`
1H
11
0e
1d
0G
1D
0E
1J
1(
0)
0I
1L
0K
1M
#550000
0!
12
0F
#555000
1!
02
1F
1j
0k
0l
0m
0A
0@
0?
1>
1`
1]
0H
0_
0J
0Z
0L
1a
1Y
1N
01
00
0/
1.
1e
1G
1I
1K
0M
1E
0N
1P
1)
0I
0K
1M
0O
0P
1R
1O
0Q
0R
1Q
1S
0S
#560000
0!
12
0F
#565000
1!
02
1F
1m
1A
0`
0]
1H
11
0e
0d
0G
0D
0E
0(
0)
1I
1c
1C
1'
#570000
0!
12
0F
#575000
1!
02
1F
1l
0m
0A
1@
1`
0H
1_
1J
01
10
1e
1G
0I
1E
0J
1)
1I
1K
0K
#580000
0!
12
0F
#585000
1!
02
1F
1m
1A
0`
1H
11
0e
1d
0G
1D
0E
1J
1(
0)
0I
1K
#590000
0!
12
0F
#595000
1!
02
1F
1k
0l
0m
0A
0@
1?
1`
1]
0H
0_
0J
1Z
1L
01
00
1/
1e
1G
1I
0K
1E
0L
1N
1)
0I
1K
0M
0N
1P
1M
0O
0P
1R
1O
0Q
0R
1Q
1S
0S
#600000
0!
12
0F
#605000
1!
02
1F
1m
1A
0`
0]
1H
11
0e
0d
0G
0D
0E
0(
0)
1I
1^
0c
0b
0B
0C
19
0&
0'
1%
#610000
0!
12
0F
#615000
1!
02
1F
1l
0m
0A
1@
1`
0H
1_
1J
01
10
1e
1G
0I
1E
0J
1L
1)
1I
0K
0L
1N
1K
0M
0N
1P
1M
0O
0P
1R
1O
0Q
0R
1Q
1S
0S
#620000
0!
12
0F
#625000
1!
02
1F
1m
1A
0`
1H
11
0e
1d
0G
1D
0E
1J
1(
0)
0I
1L
0K
1N
0M
1P
0O
1R
0Q
1S
#630000
0!
12
0F
#635000
1!
02
1F
1g
0h
0i
0j
0k
0l
0m
0A
0@
0?
0>
0=
0<
1;
1`
1]
0H
0_
0J
0Z
0L
0a
0Y
0N
0P
0R
1T
01
00
0/
0.
0-
0,
1+
0d
1G
1I
1K
1M
1O
1c
1Q
0S
1C
0D
0T
1'
0(
0I
0K
0M
0O
0Q
1S
1U
0^
09
0%
0U
#640000
0!
12
0F
#645000
1!
02
1F
1m
1A
1H
11
1e
0G
1E
1)
1I
#650000
0!
12
0F
#655000
1!
02
1F
1l
0m
0A
1@
0H
1_
1J
01
10
0e
1d
1G
0I
1D
0E
0J
1(
0)
1I
1K
0K
#660000
0!
12
0F
#665000
1!
02
1F
1m
1A
1H
11
1e
0G
1E
1J
1)
0I
1K
#670000
0!
12
0F
#675000
1!
02
1F
1k
0l
0m
0A
0@
1?
0H
0_
0J
1Z
1L
01
00
1/
0e
0d
1G
1I
0K
0D
0E
0L
0(
0)
0I
1K
1M
0c
1b
1B
0C
1&
0'
0M
#680000
0!
12
0F
#685000
1!
02
1F
1m
1A
1H
11
1e
0G
1E
1)
1I
#690000
0!
12
0F
#695000
1!
02
1F
1l
0m
0A
1@
0H
1_
1J
01
10
0e
1d
1G
0I
1D
0E
0J
1L
1(
0)
1I
0K
0L
1K
1M
0M
#700000
0!
12
0F
#705000
1!
02
1F
1m
1A
1H
11
1e
0G
1E
1J
1)
0I
1L
0K
1M
#710000
0!
12
0F
#715000
1!
02
1F
1j
0k
0l
0m
0A
0@
0?
1>
0H
0_
0J
0Z
0L
1a
1Y
1N
01
00
0/
1.
0e
0d
1G
1I
1K
0M
0D
0E
0N
0(
0)
0I
0K
1M
1O
1c
1C
1'
0O
#720000
0!
12
0F
#725000
1!
02
1F
1m
1A
1H
11
1e
0G
1E
1)
1I
#730000
0!
12
0F
#735000
1!
02
1F
1l
0m
0A
1@
0H
1_
1J
01
10
0e
1d
1G
0I
1D
0E
0J
1(
0)
1I
1K
0K
#740000
0!
12
0F
#745000
1!
02
1F
1m
1A
1H
11
1e
0G
1E
1J
1)
0I
1K
#750000
0!
12
0F
#755000
1!
02
1F
1k
0l
0m
0A
0@
1?
0H
0_
0J
1Z
1L
01
00
1/
0e
0d
1G
1I
0K
0D
0E
0L
1N
0(
0)
0I
1K
0M
0c
0b
1^
19
0B
0C
0N
1%
0&
0'
1M
1O
0O
#760000
0!
12
0F
#765000
1!
02
1F
1m
1A
1H
11
1e
0G
1E
1)
1I
#770000
0!
12
0F
#775000
1!
02
1F
1l
0m
0A
1@
0H
1_
1J
01
10
0e
1d
1G
0I
1D
0E
0J
1L
1(
0)
1I
0K
0L
1N
1K
0M
0N
1M
1O
0O
#780000
0!
12
0F
#785000
1!
02
1F
1m
1A
1H
11
1e
0G
1E
1J
1)
0I
1L
0K
1N
0M
1O
#790000
0!
12
0F
#795000
1!
02
1F
1i
0j
0k
0l
0m
0A
0@
0?
0>
1=
0H
0_
0J
0Z
0L
0a
0Y
0N
1P
01
00
0/
0.
1-
0d
1G
1I
1K
1M
0O
0D
0P
0(
0I
0K
0M
1O
1Q
0^
1c
1C
09
1'
0%
0Q
#800000
0!
12
0F
#805000
1!
02
1F
1m
1A
0`
1H
11
0e
1d
0G
1D
0E
1(
0)
1I
#810000
0!
12
0F
#815000
1!
02
1F
1l
0m
0A
1@
1`
0H
1_
1J
01
10
1e
1G
0I
1E
0J
1)
1I
1K
0K
#820000
0!
12
0F
#825000
1!
02
1F
1m
1A
0`
0]
1H
11
0e
0d
0G
0D
0E
1J
0(
0)
0I
0c
1b
1B
0C
1&
0'
1K
#830000
0!
12
0F
#835000
1!
02
1F
1k
0l
0m
0A
0@
1?
1`
1]
0H
0_
0J
1Z
1L
01
00
1/
1e
1G
1I
0K
1E
0L
1)
0I
1K
1M
0M
#840000
0!
12
0F
#845000
1!
02
1F
1m
1A
0`
1H
11
0e
1d
0G
1D
0E
1(
0)
1I
#850000
0!
12
0F
#855000
1!
02
1F
1l
0m
0A
1@
1`
0H
1_
1J
01
10
1e
1G
0I
1E
0J
1L
1)
1I
0K
0L
1K
1M
0M
#860000
0!
12
0F
#865000
1!
02
1F
1m
1A
0`
0]
1H
11
0e
0d
0G
0D
0E
1J
0(
0)
0I
1c
1C
1L
1'
0K
1M
#870000
0!
12
0F
#875000
1!
02
1F
1j
0k
0l
0m
0A
0@
0?
1>
1`
1]
0H
0_
0J
0Z
0L
1a
1Y
1N
01
00
0/
1.
1e
1G
1I
1K
0M
1E
0N
1P
1)
0I
0K
1M
0O
0P
1O
1Q
0Q
#880000
0!
12
0F
#885000
1!
02
1F
1m
1A
0`
1H
11
0e
1d
0G
1D
0E
1(
0)
1I
#890000
0!
12
0F
#895000
1!
02
1F
1l
0m
0A
1@
1`
0H
1_
1J
01
10
1e
1G
0I
1E
0J
1)
1I
1K
0K
#900000
0!
12
0F
#905000
1!
02
1F
1m
1A
0`
0]
1H
11
0e
0d
0G
0D
0E
1J
0(
0)
0I
1^
0c
0b
0B
0C
19
0&
0'
1%
1K
#910000
0!
12
0F
#915000
1!
02
1F
1k
0l
0m
0A
0@
1?
1`
1]
0H
0_
0J
1Z
1L
01
00
1/
1e
1G
1I
0K
1E
0L
1N
1)
0I
1K
0M
0N
1P
1M
0O
0P
1O
1Q
0Q
#920000
0!
12
0F
#925000
1!
02
1F
1m
1A
0`
1H
11
0e
1d
0G
1D
0E
1(
0)
1I
#930000
0!
12
0F
#935000
1!
02
1F
1l
0m
0A
1@
1`
0H
1_
1J
01
10
1e
1G
0I
1E
0J
1L
1)
1I
0K
0L
1N
1K
0M
0N
1P
1M
0O
0P
1O
1Q
0Q
#940000
0!
12
0F
#945000
1!
02
1F
1m
1A
0`
0]
1H
11
0e
0d
0G
0D
0E
1J
0(
0)
0I
1c
1C
1L
1'
0K
1N
0M
1P
0O
1Q
#950000
0!
12
0F
#955000
1!
02
1F
1h
0i
0j
0k
0l
0m
0A
0@
0?
0>
0=
1<
1`
1]
0H
0_
0J
0Z
0L
0a
0Y
0N
0P
1R
01
00
0/
0.
0-
1,
1d
1G
1I
1K
1M
1O
0Q
1D
0R
1T
1(
0I
0K
0M
0O
1Q
0S
0^
09
0T
0%
1S
1U
0U
#960000
0!
12
0F
#965000
1!
02
1F
1m
1A
1H
11
1e
0G
1E
1)
1I
#970000
0!
12
0F
#975000
1!
02
1F
1l
0m
0A
1@
0]
0H
1_
1J
01
10
0e
0d
1G
0I
0D
0E
0J
0(
0)
1I
1K
0c
1b
1B
0C
1&
0'
0K
#980000
0!
12
0F
#985000
1!
02
1F
1m
1A
1H
11
1e
0G
1E
1J
1)
0I
1K
#990000
0!
12
0F
#995000
1!
02
1F
1k
0l
0m
0A
0@
1?
1]
0H
0_
0J
1Z
1L
01
00
1/
0e
1d
1G
1I
0K
1D
0E
0L
1(
0)
0I
1K
1M
0M
