flipfinal/simulation/qsim/flipfinal.msim.vcd
$comment
	File created using the following command:
		vcd file flipfinal.msim.vcd -direction
$end
$date
	Tue Nov 24 15:59:35 2015
$end
$version
	ModelSim Version 10.3d
$end
$timescale
	1ps
$end

$scope module flipfinal_vlg_vec_tst $end
$var reg 1 ! CLOCK $end
$var wire 1 " A [3] $end
$var wire 1 # A [2] $end
$var wire 1 $ A [1] $end
$var wire 1 % A [0] $end
$var wire 1 & B [3] $end
$var wire 1 ' B [2] $end
$var wire 1 ( B [1] $end
$var wire 1 ) B [0] $end
$var wire 1 * S [3] $end
$var wire 1 + S [2] $end
$var wire 1 , S [1] $end
$var wire 1 - S [0] $end
$var wire 1 . sampler $end

$scope module i1 $end
$var wire 1 / gnd $end
$var wire 1 0 vcc $end
$var wire 1 1 unknown $end
$var tri1 1 2 devclrn $end
$var tri1 1 3 devpor $end
$var tri1 1 4 devoe $end
$var wire 1 5 A[3]~output_o $end
$var wire 1 6 A[2]~output_o $end
$var wire 1 7 A[1]~output_o $end
$var wire 1 8 A[0]~output_o $end
$var wire 1 9 B[3]~output_o $end
$var wire 1 : B[2]~output_o $end
$var wire 1 ; B[1]~output_o $end
$var wire 1 < B[0]~output_o $end
$var wire 1 = S[3]~output_o $end
$var wire 1 > S[2]~output_o $end
$var wire 1 ? S[1]~output_o $end
$var wire 1 @ S[0]~output_o $end
$var wire 1 A CLOCK~input_o $end
$var wire 1 B inst1|LPM_COUNTER_component|auto_generated|counter_comb_bita0~combout $end
$var wire 1 C inst1|LPM_COUNTER_component|auto_generated|counter_comb_bita0~COUT $end
$var wire 1 D inst1|LPM_COUNTER_component|auto_generated|counter_comb_bita1~combout $end
$var wire 1 E inst1|LPM_COUNTER_component|auto_generated|counter_comb_bita1~COUT $end
$var wire 1 F inst1|LPM_COUNTER_component|auto_generated|counter_comb_bita2~combout $end
$var wire 1 G inst1|LPM_COUNTER_component|auto_generated|counter_comb_bita2~COUT $end
$var wire 1 H inst1|LPM_COUNTER_component|auto_generated|counter_comb_bita3~combout $end
$var wire 1 I inst|inst4|HAs~0_combout $end
$var wire 1 J inst2|16~q $end
$var wire 1 K inst|inst3|inst12~0_combout $end
$var wire 1 L inst2|15~q $end
$var wire 1 M inst|inst3|inst~0_combout $end
$var wire 1 N inst|inst2|inst12~0_combout $end
$var wire 1 O inst2|14~q $end
$var wire 1 P inst|inst|inst12~0_combout $end
$var wire 1 Q inst|inst|inst12~1_combout $end
$var wire 1 R inst2|13~q $end
$var wire 1 S inst1|LPM_COUNTER_component|auto_generated|counter_reg_bit [3] $end
$var wire 1 T inst1|LPM_COUNTER_component|auto_generated|counter_reg_bit [2] $end
$var wire 1 U inst1|LPM_COUNTER_component|auto_generated|counter_reg_bit [1] $end
$var wire 1 V inst1|LPM_COUNTER_component|auto_generated|counter_reg_bit [0] $end
$upscope $end
$upscope $end
$enddefinitions $end
#0
$dumpvars
0!
0%
0$
0#
0"
0)
0(
0'
0&
0-
0,
0+
0*
x.
0/
10
x1
12
13
14
05
06
07
08
09
0:
0;
0<
0=
0>
0?
0@
0A
1B
0C
0D
1E
0F
0G
0H
0I
0J
0K
0L
0M
0N
0O
0P
0Q
0R
0V
0U
0T
0S
$end
#5000
1!
0.
1A
1V
18
1C
1%
1I
0B
1@
1-
1D
#10000
0!
1.
0A
#15000
1!
0.
1A
1J
1U
0V
08
17
1<
0E
0C
0%
1$
1)
1K
0D
1B
1?
1E
1,
1F
1D
0F
#20000
0!
1.
0A
#25000
1!
0.
1A
1L
1V
18
1;
1M
1C
1%
1(
0I
0B
0@
0E
0-
1N
0D
1>
1+
1F
#30000
0!
1.
0A
#35000
1!
0.
1A
1O
0J
1T
0U
0V
08
07
16
0<
1:
1P
0M
1G
1E
0C
0%
0$
1#
0)
1'
0F
1D
1B
0G
1Q
0N
1H
1F
0D
0>
1=
0+
1*
0H
#40000
0!
1.
0A
#45000
1!
0.
1A
1R
0O
1V
18
0:
19
0P
1C
1%
0'
1&
0Q
1N
1I
0B
1@
1>
0=
1-
1+
0*
1Q
1D
1=
1*
#50000
0!
1.
0A
#55000
1!
0.
1A
1O
1J
1U
0V
08
17
1<
1:
1P
1M
0E
0C
0%
1$
1)
1'
0N
0K
0D
1B
0?
0>
1G
1E
0,
0+
0Q
1N
0F
1D
1>
0=
0G
1+
0*
1H
1F
0H
#60000
0!
1.
0A
#65000
1!
0.
1A
0R
0L
1V
18
0;
09
1C
1%
0(
0&
1Q
0I
0B
0@
1=
0E
0-
1*
0D
1G
0F
1H
#70000
0!
1.
0A
#75000
1!
0.
1A
1R
0J
1S
0T
0U
0V
08
07
06
15
0<
19
0M
0P
0G
1E
0C
0%
0$
0#
1"
0)
1&
0Q
0H
0N
1F
1D
1B
0>
0=
1P
0+
0*
1N
1Q
1H
0F
0D
1=
1>
1*
1+
0Q
0=
0*
#80000
0!
1.
0A
#85000
1!
0.
1A
0R
1V
18
09
1C
1%
0&
1Q
1I
0B
1@
1=
1-
1*
1D
#90000
0!
1.
0A
#95000
1!
0.
1A
1R
1J
1U
0V
08
17
1<
19
0E
0C
0%
1$
1)
1&
0Q
1K
0D
1B
1?
0=
1E
1,
0*
1F
1D
0F
#100000
0!
1.
0A
#105000
1!
0.
1A
0R
1L
1V
18
1;
09
1M
1C
1%
1(
0&
1Q
0I
0B
0@
1=
0P
0E
0-
1*
0N
0D
0>
0+
0Q
1F
0=
0*
#110000
0!
1.
0A
#115000
1!
0.
1A
0O
0J
1T
0U
0V
08
07
16
0<
0:
0M
1G
1E
0C
0%
0$
1#
0)
0'
0F
1D
1B
1P
0G
1N
0H
1F
0D
1>
1+
1Q
1H
1=
1*
#120000
0!
1.
0A
#125000
1!
0.
1A
1R
1O
1V
18
1:
19
0P
1C
1%
1'
1&
0Q
0N
1I
0B
1@
0>
0=
1-
0+
0*
1Q
1D
1=
1*
#130000
0!
1.
0A
#135000
1!
0.
1A
0O
1J
1U
0V
08
17
1<
0:
1P
1M
0E
0C
0%
1$
1)
0'
1N
0K
0D
1B
0?
1>
0P
1G
1E
0,
1+
0Q
0N
0F
1D
0>
0=
0G
0+
0*
1Q
0H
1F
1=
1*
1H
#140000
0!
1.
0A
#145000
1!
0.
1A
0L
1V
18
0;
1C
1%
0(
0I
0B
0@
0E
0-
0D
1G
0F
0H
#150000
0!
1.
0A
#155000
1!
0.
1A
0J
0S
0T
0U
0V
08
07
06
05
0<
0M
0G
1E
0C
0%
0$
0#
0"
0)
1H
1N
1F
1D
1B
1>
1+
0N
0H
0F
0D
0>
0+
#160000
0!
1.
0A
#165000
1!
0.
1A
1V
18
1C
1%
1I
0B
1@
1-
1D
#170000
0!
1.
0A
#175000
1!
0.
1A
1J
1U
0V
08
17
1<
0E
0C
0%
1$
1)
1K
0D
1B
1?
1E
1,
1F
1D
0F
#180000
0!
1.
0A
#185000
1!
0.
1A
1L
1V
18
1;
1M
1C
1%
1(
0I
0B
0@
0E
0-
1N
0D
1>
1+
1F
#190000
0!
1.
0A
#195000
1!
0.
1A
1O
0J
1T
0U
0V
08
07
16
0<
1:
1P
0M
1G
1E
0C
0%
0$
1#
0)
1'
0F
1D
1B
0G
0Q
0N
1H
1F
0D
0>
0=
0+
0*
0H
#200000
0!
1.
0A
#205000
1!
0.
1A
0R
0O
1V
18
0:
09
0P
1C
1%
0'
0&
1Q
1N
1I
0B
1@
1>
1=
1-
1+
1*
0Q
1D
0=
0*
#210000
0!
1.
0A
#215000
1!
0.
1A
1O
1J
1U
0V
08
17
1<
1:
1P
1M
0E
0C
0%
1$
1)
1'
0N
0K
0D
1B
0?
0>
1G
1E
0,
0+
1Q
1N
0F
1D
1>
1=
0G
1+
1*
1H
1F
0H
#220000
0!
1.
0A
#225000
1!
0.
1A
1R
0L
1V
18
0;
19
1C
1%
0(
1&
0Q
0I
0B
0@
0=
0E
0-
0*
0D
1G
0F
1H
#230000
0!
1.
0A
#235000
1!
0.
1A
0R
0J
1S
0T
0U
0V
08
07
06
15
0<
09
0M
0P
0G
1E
0C
0%
0$
0#
1"
0)
0&
1Q
0H
0N
1F
1D
1B
0>
1=
1P
0+
1*
1N
0Q
1H
0F
0D
0=
1>
0*
1+
1Q
1=
1*
#240000
0!
1.
0A
#245000
1!
0.
1A
1R
1V
18
19
1C
1%
1&
0Q
1I
0B
1@
0=
1-
0*
1D
#250000
0!
1.
0A
#255000
1!
0.
1A
0R
1J
1U
0V
08
17
1<
09
0E
0C
0%
1$
1)
0&
1Q
1K
0D
1B
1?
1=
1E
1,
1*
1F
1D
0F
#260000
0!
1.
0A
#265000
1!
0.
1A
1R
1L
1V
18
1;
19
1M
1C
1%
1(
1&
0Q
0I
0B
0@
0=
0P
0E
0-
0*
0N
0D
0>
0+
1Q
1F
1=
1*
#270000
0!
1.
0A
#275000
1!
0.
1A
0O
0J
1T
0U
0V
08
07
16
0<
0:
0M
1G
1E
0C
0%
0$
1#
0)
0'
0F
1D
1B
1P
0G
1N
0H
1F
0D
1>
1+
0Q
1H
0=
0*
#280000
0!
1.
0A
#285000
1!
0.
1A
0R
1O
1V
18
1:
09
0P
1C
1%
1'
0&
1Q
0N
1I
0B
1@
0>
1=
1-
0+
1*
0Q
1D
0=
0*
#290000
0!
1.
0A
#295000
1!
0.
1A
0O
1J
1U
0V
08
17
1<
0:
1P
1M
0E
0C
0%
1$
1)
0'
1N
0K
0D
1B
0?
1>
0P
1G
1E
0,
1+
1Q
0N
0F
1D
0>
1=
0G
0+
1*
0Q
0H
1F
0=
0*
1H
#300000
0!
1.
0A
#305000
1!
0.
1A
0L
1V
18
0;
1C
1%
0(
0I
0B
0@
0E
0-
0D
1G
0F
0H
#310000
0!
1.
0A
#315000
1!
0.
1A
0J
0S
0T
0U
0V
08
07
06
05
0<
0M
0G
1E
0C
0%
0$
0#
0"
0)
1H
1N
1F
1D
1B
1>
1+
0N
0H
0F
0D
0>
0+
#320000
0!
1.
0A
#325000
1!
0.
1A
1V
18
1C
1%
1I
0B
1@
1-
1D
#330000
0!
1.
0A
#335000
1!
0.
1A
1J
1U
0V
08
17
1<
0E
0C
0%
1$
1)
1K
0D
1B
1?
1E
1,
1F
1D
0F
#340000
0!
1.
0A
#345000
1!
0.
1A
1L
1V
18
1;
1M
1C
1%
1(
0I
0B
0@
0E
0-
1N
0D
1>
1+
1F
#350000
0!
1.
0A
#355000
1!
0.
1A
1O
0J
1T
0U
0V
08
07
16
0<
1:
1P
0M
1G
1E
0C
0%
0$
1#
0)
1'
0F
1D
1B
0G
1Q
0N
1H
1F
0D
0>
1=
0+
1*
0H
#360000
0!
1.
0A
#365000
1!
0.
1A
1R
0O
1V
18
0:
19
0P
1C
1%
0'
1&
0Q
1N
1I
0B
1@
1>
0=
1-
1+
0*
1Q
1D
1=
1*
#370000
0!
1.
0A
#375000
1!
0.
1A
1O
1J
1U
0V
08
17
1<
1:
1P
1M
0E
0C
0%
1$
1)
1'
0N
0K
0D
1B
0?
0>
1G
1E
0,
0+
0Q
1N
0F
1D
1>
0=
0G
1+
0*
1H
1F
0H
#380000
0!
1.
0A
#385000
1!
0.
1A
0R
0L
1V
18
0;
09
1C
1%
0(
0&
1Q
0I
0B
0@
1=
0E
0-
1*
0D
1G
0F
1H
#390000
0!
1.
0A
#395000
1!
0.
1A
1R
0J
1S
0T
0U
0V
08
07
06
15
0<
19
0M
0P
0G
1E
0C
0%
0$
0#
1"
0)
1&
0Q
0H
0N
1F
1D
1B
0>
0=
1P
0+
0*
1N
1Q
1H
0F
0D
1=
1>
1*
1+
0Q
0=
0*
#400000
0!
1.
0A
#405000
1!
0.
1A
0R
1V
18
09
1C
1%
0&
1Q
1I
0B
1@
1=
1-
1*
1D
#410000
0!
1.
0A
#415000
1!
0.
1A
1R
1J
1U
0V
08
17
1<
19
0E
0C
0%
1$
1)
1&
0Q
1K
0D
1B
1?
0=
1E
1,
0*
1F
1D
0F
#420000
0!
1.
0A
#425000
1!
0.
1A
0R
1L
1V
18
1;
09
1M
1C
1%
1(
0&
1Q
0I
0B
0@
1=
0P
0E
0-
1*
0N
0D
0>
0+
0Q
1F
0=
0*
#430000
0!
1.
0A
#435000
1!
0.
1A
0O
0J
1T
0U
0V
08
07
16
0<
0:
0M
1G
1E
0C
0%
0$
1#
0)
0'
0F
1D
1B
1P
0G
1N
0H
1F
0D
1>
1+
1Q
1H
1=
1*
#440000
0!
1.
0A
#445000
1!
0.
1A
1R
1O
1V
18
1:
19
0P
1C
1%
1'
1&
0Q
0N
1I
0B
1@
0>
0=
1-
0+
0*
1Q
1D
1=
1*
#450000
0!
1.
0A
#455000
1!
0.
1A
0O
1J
1U
0V
08
17
1<
0:
1P
1M
0E
0C
0%
1$
1)
0'
1N
0K
0D
1B
0?
1>
0P
1G
1E
0,
1+
0Q
0N
0F
1D
0>
0=
0G
0+
0*
1Q
0H
1F
1=
1*
1H
#460000
0!
1.
0A
#465000
1!
0.
1A
0L
1V
18
0;
1C
1%
0(
0I
0B
0@
0E
0-
0D
1G
0F
0H
#470000
0!
1.
0A
#475000
1!
0.
1A
0J
0S
0T
0U
0V
08
07
06
05
0<
0M
0G
1E
0C
0%
0$
0#
0"
0)
1H
1N
1F
1D
1B
1>
1+
0N
0H
0F
0D
0>
0+
#480000
0!
1.
0A
#485000
1!
0.
1A
1V
18
1C
1%
1I
0B
1@
1-
1D
#490000
0!
1.
0A
#495000
1!
0.
1A
1J
1U
0V
08
17
1<
0E
0C
0%
1$
1)
1K
0D
1B
1?
1E
1,
1F
1D
0F
#500000
0!
1.
0A
#505000
1!
0.
1A
1L
1V
18
1;
1M
1C
1%
1(
0I
0B
0@
0E
0-
1N
0D
1>
1+
1F
#510000
0!
1.
0A
#515000
1!
0.
1A
1O
0J
1T
0U
0V
08
07
16
0<
1:
1P
0M
1G
1E
0C
0%
0$
1#
0)
1'
0F
1D
1B
0G
0Q
0N
1H
1F
0D
0>
0=
0+
0*
0H
#520000
0!
1.
0A
#525000
1!
0.
1A
0R
0O
1V
18
0:
09
0P
1C
1%
0'
0&
1Q
1N
1I
0B
1@
1>
1=
1-
1+
1*
0Q
1D
0=
0*
#530000
0!
1.
0A
#535000
1!
0.
1A
1O
1J
1U
0V
08
17
1<
1:
1P
1M
0E
0C
0%
1$
1)
1'
0N
0K
0D
1B
0?
0>
1G
1E
0,
0+
1Q
1N
0F
1D
1>
1=
0G
1+
1*
1H
1F
0H
#540000
0!
1.
0A
#545000
1!
0.
1A
1R
0L
1V
18
0;
19
1C
1%
0(
1&
0Q
0I
0B
0@
0=
0E
0-
0*
0D
1G
0F
1H
#550000
0!
1.
0A
#555000
1!
0.
1A
0R
0J
1S
0T
0U
0V
08
07
06
15
0<
09
0M
0P
0G
1E
0C
0%
0$
0#
1"
0)
0&
1Q
0H
0N
1F
1D
1B
0>
1=
1P
0+
1*
1N
0Q
1H
0F
0D
0=
1>
0*
1+
1Q
1=
1*
#560000
0!
1.
0A
#565000
1!
0.
1A
1R
1V
18
19
1C
1%
1&
0Q
1I
0B
1@
0=
1-
0*
1D
#570000
0!
1.
0A
#575000
1!
0.
1A
0R
1J
1U
0V
08
17
1<
09
0E
0C
0%
1$
1)
0&
1Q
1K
0D
1B
1?
1=
1E
1,
1*
1F
1D
0F
#580000
0!
1.
0A
#585000
1!
0.
1A
1R
1L
1V
18
1;
19
1M
1C
1%
1(
1&
0Q
0I
0B
0@
0=
0P
0E
0-
0*
0N
0D
0>
0+
1Q
1F
1=
1*
#590000
0!
1.
0A
#595000
1!
0.
1A
0O
0J
1T
0U
0V
08
07
16
0<
0:
0M
1G
1E
0C
0%
0$
1#
0)
0'
0F
1D
1B
1P
0G
1N
0H
1F
0D
1>
1+
0Q
1H
0=
0*
#600000
0!
1.
0A
#605000
1!
0.
1A
0R
1O
1V
18
1:
09
0P
1C
1%
1'
0&
1Q
0N
1I
0B
1@
0>
1=
1-
0+
1*
0Q
1D
0=
0*
#610000
0!
1.
0A
#615000
1!
0.
1A
0O
1J
1U
0V
08
17
1<
0:
1P
1M
0E
0C
0%
1$
1)
0'
1N
0K
0D
1B
0?
1>
0P
1G
1E
0,
1+
1Q
0N
0F
1D
0>
1=
0G
0+
1*
0Q
0H
1F
0=
0*
1H
#620000
0!
1.
0A
#625000
1!
0.
1A
0L
1V
18
0;
1C
1%
0(
0I
0B
0@
0E
0-
0D
1G
0F
0H
#630000
0!
1.
0A
#635000
1!
0.
1A
0J
0S
0T
0U
0V
08
07
06
05
0<
0M
0G
1E
0C
0%
0$
0#
0"
0)
1H
1N
1F
1D
1B
1>
1+
0N
0H
0F
0D
0>
0+
#640000
0!
1.
0A
#645000
1!
0.
1A
1V
18
1C
1%
1I
0B
1@
1-
1D
#650000
0!
1.
0A
#655000
1!
0.
1A
1J
1U
0V
08
17
1<
0E
0C
0%
1$
1)
1K
0D
1B
1?
1E
1,
1F
1D
0F
#660000
0!
1.
0A
#665000
1!
0.
1A
1L
1V
18
1;
1M
1C
1%
1(
0I
0B
0@
0E
0-
1N
0D
1>
1+
1F
#670000
0!
1.
0A
#675000
1!
0.
1A
1O
0J
1T
0U
0V
08
07
16
0<
1:
1P
0M
1G
1E
0C
0%
0$
1#
0)
1'
0F
1D
1B
0G
1Q
0N
1H
1F
0D
0>
1=
0+
1*
0H
#680000
0!
1.
0A
#685000
1!
0.
1A
1R
0O
1V
18
0:
19
0P
1C
1%
0'
1&
0Q
1N
1I
0B
1@
1>
0=
1-
1+
0*
1Q
1D
1=
1*
#690000
0!
1.
0A
#695000
1!
0.
1A
1O
1J
1U
0V
08
17
1<
1:
1P
1M
0E
0C
0%
1$
1)
1'
0N
0K
0D
1B
0?
0>
1G
1E
0,
0+
0Q
1N
0F
1D
1>
0=
0G
1+
0*
1H
1F
0H
#700000
0!
1.
0A
#705000
1!
0.
1A
0R
0L
1V
18
0;
09
1C
1%
0(
0&
1Q
0I
0B
0@
1=
0E
0-
1*
0D
1G
0F
1H
#710000
0!
1.
0A
#715000
1!
0.
1A
1R
0J
1S
0T
0U
0V
08
07
06
15
0<
19
0M
0P
0G
1E
0C
0%
0$
0#
1"
0)
1&
0Q
0H
0N
1F
1D
1B
0>
0=
1P
0+
0*
1N
1Q
1H
0F
0D
1=
1>
1*
1+
0Q
0=
0*
#720000
0!
1.
0A
#725000
1!
0.
1A
0R
1V
18
09
1C
1%
0&
1Q
1I
0B
1@
1=
1-
1*
1D
#730000
0!
1.
0A
#735000
1!
0.
1A
1R
1J
1U
0V
08
17
1<
19
0E
0C
0%
1$
1)
1&
0Q
1K
0D
1B
1?
0=
1E
1,
0*
1F
1D
0F
#740000
0!
1.
0A
#745000
1!
0.
1A
0R
1L
1V
18
1;
09
1M
1C
1%
1(
0&
1Q
0I
0B
0@
1=
0P
0E
0-
1*
0N
0D
0>
0+
0Q
1F
0=
0*
#750000
0!
1.
0A
#755000
1!
0.
1A
0O
0J
1T
0U
0V
08
07
16
0<
0:
0M
1G
1E
0C
0%
0$
1#
0)
0'
0F
1D
1B
1P
0G
1N
0H
1F
0D
1>
1+
1Q
1H
1=
1*
#760000
0!
1.
0A
#765000
1!
0.
1A
1R
1O
1V
18
1:
19
0P
1C
1%
1'
1&
0Q
0N
1I
0B
1@
0>
0=
1-
0+
0*
1Q
1D
1=
1*
#770000
0!
1.
0A
#775000
1!
0.
1A
0O
1J
1U
0V
08
17
1<
0:
1P
1M
0E
0C
0%
1$
1)
0'
1N
0K
0D
1B
0?
1>
0P
1G
1E
0,
1+
0Q
0N
0F
1D
0>
0=
0G
0+
0*
1Q
0H
1F
1=
1*
1H
#780000
0!
1.
0A
#785000
1!
0.
1A
0L
1V
18
0;
1C
1%
0(
0I
0B
0@
0E
0-
0D
1G
0F
0H
#790000
0!
1.
0A
#795000
1!
0.
1A
0J
0S
0T
0U
0V
08
07
06
05
0<
0M
0G
1E
0C
0%
0$
0#
0"
0)
1H
1N
1F
1D
1B
1>
1+
0N
0H
0F
0D
0>
0+
#800000
0!
1.
0A
#805000
1!
0.
1A
1V
18
1C
1%
1I
0B
1@
1-
1D
#810000
0!
1.
0A
#815000
1!
0.
1A
1J
1U
0V
08
17
1<
0E
0C
0%
1$
1)
1K
0D
1B
1?
1E
1,
1F
1D
0F
#820000
0!
1.
0A
#825000
1!
0.
1A
1L
1V
18
1;
1M
1C
1%
1(
0I
0B
0@
0E
0-
1N
0D
1>
1+
1F
#830000
0!
1.
0A
#835000
1!
0.
1A
1O
0J
1T
0U
0V
08
07
16
0<
1:
1P
0M
1G
1E
0C
0%
0$
1#
0)
1'
0F
1D
1B
0G
0Q
0N
1H
1F
0D
0>
0=
0+
0*
0H
#840000
0!
1.
0A
#845000
1!
0.
1A
0R
0O
1V
18
0:
09
0P
1C
1%
0'
0&
1Q
1N
1I
0B
1@
1>
1=
1-
1+
1*
0Q
1D
0=
0*
#850000
0!
1.
0A
#855000
1!
0.
1A
1O
1J
1U
0V
08
17
1<
1:
1P
1M
0E
0C
0%
1$
1)
1'
0N
0K
0D
1B
0?
0>
1G
1E
0,
0+
1Q
1N
0F
1D
1>
1=
0G
1+
1*
1H
1F
0H
#860000
0!
1.
0A
#865000
1!
0.
1A
1R
0L
1V
18
0;
19
1C
1%
0(
1&
0Q
0I
0B
0@
0=
0E
0-
0*
0D
1G
0F
1H
#870000
0!
1.
0A
#875000
1!
0.
1A
0R
0J
1S
0T
0U
0V
08
07
06
15
0<
09
0M
0P
0G
1E
0C
0%
0$
0#
1"
0)
0&
1Q
0H
0N
1F
1D
1B
0>
1=
1P
0+
1*
1N
0Q
1H
0F
0D
0=
1>
0*
1+
1Q
1=
1*
#880000
0!
1.
0A
#885000
1!
0.
1A
1R
1V
18
19
1C
1%
1&
0Q
1I
0B
1@
0=
1-
0*
1D
#890000
0!
1.
0A
#895000
1!
0.
1A
0R
1J
1U
0V
08
17
1<
09
0E
0C
0%
1$
1)
0&
1Q
1K
0D
1B
1?
1=
1E
1,
1*
1F
1D
0F
#900000
0!
1.
0A
#905000
1!
0.
1A
1R
1L
1V
18
1;
19
1M
1C
1%
1(
1&
0Q
0I
0B
0@
0=
0P
0E
0-
0*
0N
0D
0>
0+
1Q
1F
1=
1*
#910000
0!
1.
0A
#915000
1!
0.
1A
0O
0J
1T
0U
0V
08
07
16
0<
0:
0M
1G
1E
0C
0%
0$
1#
0)
0'
0F
1D
1B
1P
0G
1N
0H
1F
0D
1>
1+
0Q
1H
0=
0*
#920000
0!
1.
0A
#925000
1!
0.
1A
0R
1O
1V
18
1:
09
0P
1C
1%
1'
0&
1Q
0N
1I
0B
1@
0>
1=
1-
0+
1*
0Q
1D
0=
0*
#930000
0!
1.
0A
#935000
1!
0.
1A
0O
1J
1U
0V
08
17
1<
0:
1P
1M
0E
0C
0%
1$
1)
0'
1N
0K
0D
1B
0?
1>
0P
1G
1E
0,
1+
1Q
0N
0F
1D
0>
1=
0G
0+
1*
0Q
0H
1F
0=
0*
1H
#940000
0!
1.
0A
#945000
1!
0.
1A
0L
1V
18
0;
1C
1%
0(
0I
0B
0@
0E
0-
0D
1G
0F
0H
#950000
0!
1.
0A
#955000
1!
0.
1A
0J
0S
0T
0U
0V
08
07
06
05
0<
0M
0G
1E
0C
0%
0$
0#
0"
0)
1H
1N
1F
1D
1B
1>
1+
0N
0H
0F
0D
0>
0+
#960000
0!
1.
0A
#965000
1!
0.
1A
1V
18
1C
1%
1I
0B
1@
1-
1D
#970000
0!
1.
0A
#975000
1!
0.
1A
1J
1U
0V
08
17
1<
0E
0C
0%
1$
1)
1K
0D
1B
1?
1E
1,
1F
1D
0F
#980000
0!
1.
0A
#985000
1!
0.
1A
1L
1V
18
1;
1M
1C
1%
1(
0I
0B
0@
0E
0-
1N
0D
1>
1+
1F
#990000
0!
1.
0A
#995000
1!
0.
1A
1O
0J
1T
0U
0V
08
07
16
0<
1:
1P
0M
1G
1E
0C
0%
0$
1#
0)
1'
0F
1D
1B
0G
1Q
0N
1H
1F
0D
0>
1=
0+
1*
0H
